{
    "AUTHOR" : "Daniel Mason (idanoo)",
    "INSTALL_MSG" : "A-Mazing!",
    "NAME" : "amazing",
    "SHORT" : "Short amazing.",
    "DESCRIPTION" : "Long amazing",
    "TAGS" : ["amazing"],
    "REQUIREMENTS" : [],
    "HIDDEN" : false
}
